%YAML 1.1
%TAG !u! tag:unity3d.com,2011:
--- !u!1 &5012594585184748672
GameObject:
  m_ObjectHideFlags: 0
  m_CorrespondingSourceObject: {fileID: 0}
  m_PrefabInstance: {fileID: 0}
  m_PrefabAsset: {fileID: 0}
  serializedVersion: 6
  m_Component:
  - component: {fileID: 5012594585184748684}
  - component: {fileID: 5012594585184748687}
  - component: {fileID: 5012594585184748686}
  - component: {fileID: 5012594585184748673}
  m_Layer: 0
  m_Name: AudioHandeler
  m_TagString: Untagged
  m_Icon: {fileID: 0}
  m_NavMeshLayer: 0
  m_StaticEditorFlags: 0
  m_IsActive: 1
--- !u!4 &5012594585184748684
Transform:
  m_ObjectHideFlags: 0
  m_CorrespondingSourceObject: {fileID: 0}
  m_PrefabInstance: {fileID: 0}
  m_PrefabAsset: {fileID: 0}
  m_GameObject: {fileID: 5012594585184748672}
  m_LocalRotation: {x: 0, y: 0, z: 0, w: 1}
  m_LocalPosition: {x: -8.488325, y: -11.049629, z: -0.26932746}
  m_LocalScale: {x: 1, y: 1, z: 1}
  m_Children: []
  m_Father: {fileID: 0}
  m_RootOrder: 0
  m_LocalEulerAnglesHint: {x: 0, y: 0, z: 0}
--- !u!114 &5012594585184748687
MonoBehaviour:
  m_ObjectHideFlags: 0
  m_CorrespondingSourceObject: {fileID: 0}
  m_PrefabInstance: {fileID: 0}
  m_PrefabAsset: {fileID: 0}
  m_GameObject: {fileID: 5012594585184748672}
  m_Enabled: 1
  m_EditorHideFlags: 0
  m_Script: {fileID: -1465209106, guid: c8d0ad23af520fe46aabe2b1fecf6462, type: 3}
  m_Name: 
  m_EditorClassIdentifier: 
  _data:
    _json: '{"declarations":{"collection":{"$content":[],"$version":"A"},"$version":"A"}}'
    _objectReferences: []
--- !u!114 &5012594585184748686
MonoBehaviour:
  m_ObjectHideFlags: 0
  m_CorrespondingSourceObject: {fileID: 0}
  m_PrefabInstance: {fileID: 0}
  m_PrefabAsset: {fileID: 0}
  m_GameObject: {fileID: 5012594585184748672}
  m_Enabled: 1
  m_EditorHideFlags: 0
  m_Script: {fileID: -57143145, guid: a040fb66244a7f54289914d98ea4ef7d, type: 3}
  m_Name: 
  m_EditorClassIdentifier: 
  _data:
    _json: '{"nest":{"source":"Embed","macro":null,"embed":{"variables":{"collection":{"$content":[],"$version":"A"},"$version":"A"},"controlInputDefinitions":[],"controlOutputDefinitions":[],"valueInputDefinitions":[],"valueOutputDefinitions":[],"title":null,"summary":null,"pan":{"x":166.6257,"y":-16.89507},"zoom":0.7500001,"elements":[{"coroutine":false,"defaultValues":{},"position":{"x":-204.0,"y":60.0},"guid":"902af59f-1748-4632-b41e-d2bbd64654d1","$version":"A","$type":"Bolt.Update"},{"type":"System.Boolean","value":{"$content":true,"$type":"System.Boolean"},"defaultValues":{},"position":{"x":-394.0,"y":-96.0},"guid":"5ae70a65-a055-489e-892f-72232fe3d601","$version":"A","$type":"Bolt.Literal","$id":"12"},{"coroutine":false,"defaultValues":{},"position":{"x":-408.0,"y":-186.0},"guid":"80adfa2a-3d80-44f0-b41f-0f12c283e84b","$version":"A","$type":"Bolt.Start"},{"chainable":false,"member":{"name":"PlayOneShot","parameterTypes":["UnityEngine.AudioClip"],"targetType":"UnityEngine.AudioSource","targetTypeName":"UnityEngine.AudioSource","$version":"A"},"defaultValues":{"target":null,"%clip":null},"position":{"x":131.0,"y":-194.0},"guid":"7f3b977b-4e83-4330-b0e7-3f5bb2238411","$version":"A","$type":"Bolt.InvokeMember","$id":"16"},{"defaultValues":{},"position":{"x":-148.0,"y":-204.0},"guid":"bde514da-cb50-43e8-b675-202640b11731","$version":"A","$type":"Bolt.While","$id":"19"},{"type":"UnityEngine.AudioClip","value":{"$content":0,"$type":"UnityEngine.Object"},"defaultValues":{},"position":{"x":-173.0,"y":-82.0},"guid":"6d75cfa0-fdff-48f6-a37c-2d273c833e49","$version":"A","$type":"Bolt.Literal","$id":"21"},{"sourceUnit":{"$ref":"12"},"sourceKey":"output","destinationUnit":{"$ref":"19"},"destinationKey":"condition","guid":"e85cb4b2-b4bf-4efe-a897-3977455f542d","$type":"Bolt.ValueConnection"},{"sourceUnit":{"$ref":"21"},"sourceKey":"output","destinationUnit":{"$ref":"16"},"destinationKey":"%clip","guid":"0b335be1-5a70-4a65-b7c2-b63320349693","$type":"Bolt.ValueConnection"}],"$version":"A"}}}'
    _objectReferences:
    - {fileID: 8300000, guid: 5790262ff0b47384aa3bbce465ffedce, type: 3}
--- !u!82 &5012594585184748673
AudioSource:
  m_ObjectHideFlags: 0
  m_CorrespondingSourceObject: {fileID: 0}
  m_PrefabInstance: {fileID: 0}
  m_PrefabAsset: {fileID: 0}
  m_GameObject: {fileID: 5012594585184748672}
  m_Enabled: 1
  serializedVersion: 4
  OutputAudioMixerGroup: {fileID: 0}
  m_audioClip: {fileID: 8300000, guid: 5790262ff0b47384aa3bbce465ffedce, type: 3}
  m_PlayOnAwake: 1
  m_Volume: 1
  m_Pitch: 1
  Loop: 1
  Mute: 0
  Spatialize: 0
  SpatializePostEffects: 0
  Priority: 128
  DopplerLevel: 1
  MinDistance: 1
  MaxDistance: 500
  Pan2D: 0
  rolloffMode: 0
  BypassEffects: 0
  BypassListenerEffects: 0
  BypassReverbZones: 0
  rolloffCustomCurve:
    serializedVersion: 2
    m_Curve:
    - serializedVersion: 3
      time: 0
      value: 1
      inSlope: 0
      outSlope: 0
      tangentMode: 0
      weightedMode: 0
      inWeight: 0.33333334
      outWeight: 0.33333334
    - serializedVersion: 3
      time: 1
      value: 0
      inSlope: 0
      outSlope: 0
      tangentMode: 0
      weightedMode: 0
      inWeight: 0.33333334
      outWeight: 0.33333334
    m_PreInfinity: 2
    m_PostInfinity: 2
    m_RotationOrder: 4
  panLevelCustomCurve:
    serializedVersion: 2
    m_Curve:
    - serializedVersion: 3
      time: 0
      value: 0
      inSlope: 0
      outSlope: 0
      tangentMode: 0
      weightedMode: 0
      inWeight: 0.33333334
      outWeight: 0.33333334
    m_PreInfinity: 2
    m_PostInfinity: 2
    m_RotationOrder: 4
  spreadCustomCurve:
    serializedVersion: 2
    m_Curve:
    - serializedVersion: 3
      time: 0
      value: 0
      inSlope: 0
      outSlope: 0
      tangentMode: 0
      weightedMode: 0
      inWeight: 0.33333334
      outWeight: 0.33333334
    m_PreInfinity: 2
    m_PostInfinity: 2
    m_RotationOrder: 4
  reverbZoneMixCustomCurve:
    serializedVersion: 2
    m_Curve:
    - serializedVersion: 3
      time: 0
      value: 1
      inSlope: 0
      outSlope: 0
      tangentMode: 0
      weightedMode: 0
      inWeight: 0.33333334
      outWeight: 0.33333334
    m_PreInfinity: 2
    m_PostInfinity: 2
    m_RotationOrder: 4
